[
  {
    "source_id": "in.shabinder.soundbound.extension.shabinder.jamendo",
    "source_name": "JamendoProvider",
    "source_version_code": 23,
    "source_version_name": "0.22.23",
    "link": "https://gitlab.com/shabinder/soundbound/-/raw/main/Experimental-Sources/in.shabinder.soundbound.extension.shabinder.jamendo/23/manifest.zipline.json",
    "source_type": "DOWNLOADABLE_PROVIDER",
    "enabledByDefault": false
  }
]
